{
  "info": {
    "count": 826,
    "pages": 42,
    "next": "https://rickandmortyapi.com/api/character?page=11",
    "prev": "https://rickandmortyapi.com/api/character?page=9"
  },
  "results": [
    {
      "id": 181,
      "name": "Jessica's Friend",
      "status": "Alive",
      "species": "Human",
      "type": "",
      "gender": "Female",
      "origin": {
        "name": "Earth (C-137)",
        "url": "https://rickandmortyapi.com/api/location/1"
      },
      "location": {
        "name": "Earth (Replacement Dimension)",
        "url": "https://rickandmortyapi.com/api/location/20"
      },
      "image": "https://rickandmortyapi.com/api/character/avatar/181.jpeg",
      "episode": [
        "https://rickandmortyapi.com/api/episode/1",
        "https://rickandmortyapi.com/api/episode/4",
        "https://rickandmortyapi.com/api/episode/6",
        "https://rickandmortyapi.com/api/episode/11",
        "https://rickandmortyapi.com/api/episode/17",
        "https://rickandmortyapi.com/api/episode/18",
        "https://rickandmortyapi.com/api/episode/25",
        "https://rickandmortyapi.com/api/episode/27"
      ],
      "url": "https://rickandmortyapi.com/api/character/181",
      "created": "2017-12-29T18:47:23.345Z"
    },
    {
      "id": 182,
      "name": "Jim",
      "status": "Alive",
      "species": "Human",
      "type": "",
      "gender": "Male",
      "origin": {
        "name": "Earth (Replacement Dimension)",
        "url": "https://rickandmortyapi.com/api/location/20"
      },
      "location": {
        "name": "Earth (Replacement Dimension)",
        "url": "https://rickandmortyapi.com/api/location/20"
      },
      "image": "https://rickandmortyapi.com/api/character/avatar/182.jpeg",
      "episode": [
        "https://rickandmortyapi.com/api/episode/16"
      ],
      "url": "https://rickandmortyapi.com/api/character/182",
      "created": "2017-12-29T18:49:48.953Z"
    },
    {
      "id": 183,
      "name": "Johnny Depp",
      "status": "Alive",
      "species": "Human",
      "type": "",
      "gender": "Male",
      "origin": {
        "name": "Earth (C-500A)",
        "url": "https://rickandmortyapi.com/api/location/23"
      },
      "location": {
        "name": "Earth (C-500A)",
        "url": "https://rickandmortyapi.com/api/location/23"
      },
      "image": "https://rickandmortyapi.com/api/character/avatar/183.jpeg",
      "episode": [
        "https://rickandmortyapi.com/api/episode/8"
      ],
      "url": "https://rickandmortyapi.com/api/character/183",
      "created": "2017-12-29T18:51:29.693Z"
    },
    {
      "id": 184,
      "name": "Jon",
      "status": "Alive",
      "species": "Alien",
      "type": "Gazorpian",
      "gender": "Male",
      "origin": {
        "name": "Gazorpazorp",
        "url": "https://rickandmortyapi.com/api/location/40"
      },
      "location": {
        "name": "Interdimensional Cable",
        "url": "https://rickandmortyapi.com/api/location/6"
      },
      "image": "https://rickandmortyapi.com/api/character/avatar/184.jpeg",
      "episode": [
        "https://rickandmortyapi.com/api/episode/8"
      ],
      "url": "https://rickandmortyapi.com/api/character/184",
      "created": "2017-12-29T18:54:04.572Z"
    },
    {
      "id": 185,
      "name": "Joseph Eli Lipkip",
      "status": "Alive",
      "species": "Human",
      "type": "",
      "gender": "Male",
      "origin": {
        "name": "Earth (Replacement Dimension)",
        "url": "https://rickandmortyapi.com/api/location/20"
      },
      "location": {
        "name": "Earth (Replacement Dimension)",
        "url": "https://rickandmortyapi.com/api/location/20"
      },
      "image": "https://rickandmortyapi.com/api/character/avatar/185.jpeg",
      "episode": [
        "https://rickandmortyapi.com/api/episode/30"
      ],
      "url": "https://rickandmortyapi.com/api/character/185",
      "created": "2017-12-29T18:56:15.622Z"
    },
    {
      "id": 186,
      "name": "Joyce Smith",
      "status": "Alive",
      "species": "Human",
      "type": "",
      "gender": "Female",
      "origin": {
        "name": "Earth (C-137)",
        "url": "https://rickandmortyapi.com/api/location/1"
      },
      "location": {
        "name": "Earth (C-137)",
        "url": "https://rickandmortyapi.com/api/location/1"
      },
      "image": "https://rickandmortyapi.com/api/character/avatar/186.jpeg",
      "episode": [
        "https://rickandmortyapi.com/api/episode/3"
      ],
      "url": "https://rickandmortyapi.com/api/character/186",
      "created": "2017-12-29T18:58:34.530Z"
    },
    {
      "id": 187,
      "name": "Juggling Rick",
      "status": "unknown",
      "species": "Human",
      "type": "",
      "gender": "Male",
      "origin": {
        "name": "unknown",
        "url": ""
      },
      "location": {
        "name": "Citadel of Ricks",
        "url": "https://rickandmortyapi.com/api/location/3"
      },
      "image": "https://rickandmortyapi.com/api/character/avatar/187.jpeg",
      "episode": [
        "https://rickandmortyapi.com/api/episode/28"
      ],
      "url": "https://rickandmortyapi.com/api/character/187",
      "created": "2017-12-29T18:59:47.440Z"
    },
    {
      "id": 188,
      "name": "Karen Entity",
      "status": "Alive",
      "species": "Alien",
      "type": "Unknown-nippled alien",
      "gender": "Female",
      "origin": {
        "name": "Unity's Planet",
        "url": "https://rickandmortyapi.com/api/location/28"
      },
      "location": {
        "name": "Unity's Planet",
        "url": "https://rickandmortyapi.com/api/location/28"
      },
      "image": "https://rickandmortyapi.com/api/character/avatar/188.jpeg",
      "episode": [
        "https://rickandmortyapi.com/api/episode/14"
      ],
      "url": "https://rickandmortyapi.com/api/character/188",
      "created": "2017-12-29T19:10:16.171Z"
    },
    {
      "id": 189,
      "name": "Katarina",
      "status": "Dead",
      "species": "Human",
      "type": "",
      "gender": "Female",
      "origin": {
        "name": "Earth (Replacement Dimension)",
        "url": "https://rickandmortyapi.com/api/location/20"
      },
      "location": {
        "name": "Earth (Replacement Dimension)",
        "url": "https://rickandmortyapi.com/api/location/20"
      },
      "image": "https://rickandmortyapi.com/api/character/avatar/189.jpeg",
      "episode": [
        "https://rickandmortyapi.com/api/episode/24"
      ],
      "url": "https://rickandmortyapi.com/api/character/189",
      "created": "2017-12-29T19:13:57.070Z"
    },
    {
      "id": 190,
      "name": "Keara",
      "status": "Alive",
      "species": "Alien",
      "type": "Krootabulan",
      "gender": "Female",
      "origin": {
        "name": "Krootabulon",
        "url": "https://rickandmortyapi.com/api/location/45"
      },
      "location": {
        "name": "Earth (Replacement Dimension)",
        "url": "https://rickandmortyapi.com/api/location/20"
      },
      "image": "https://rickandmortyapi.com/api/character/avatar/190.jpeg",
      "episode": [
        "https://rickandmortyapi.com/api/episode/30"
      ],
      "url": "https://rickandmortyapi.com/api/character/190",
      "created": "2017-12-29T19:26:06.900Z"
    },
    {
      "id": 191,
      "name": "Kevin",
      "status": "Dead",
      "species": "Alien",
      "type": "Zigerion",
      "gender": "Male",
      "origin": {
        "name": "unknown",
        "url": ""
      },
      "location": {
        "name": "Zigerion's Base",
        "url": "https://rickandmortyapi.com/api/location/46"
      },
      "image": "https://rickandmortyapi.com/api/character/avatar/191.jpeg",
      "episode": [
        "https://rickandmortyapi.com/api/episode/4"
      ],
      "url": "https://rickandmortyapi.com/api/character/191",
      "created": "2017-12-29T19:40:07.816Z"
    },
    {
      "id": 192,
      "name": "King Flippy Nips",
      "status": "Alive",
      "species": "Alien",
      "type": "Plutonian",
      "gender": "Male",
      "origin": {
        "name": "Pluto",
        "url": "https://rickandmortyapi.com/api/location/47"
      },
      "location": {
        "name": "Pluto",
        "url": "https://rickandmortyapi.com/api/location/47"
      },
      "image": "https://rickandmortyapi.com/api/character/avatar/192.jpeg",
      "episode": [
        "https://rickandmortyapi.com/api/episode/9"
      ],
      "url": "https://rickandmortyapi.com/api/character/192",
      "created": "2017-12-29T19:49:29.297Z"
    },
    {
      "id": 193,
      "name": "King Jellybean",
      "status": "Dead",
      "species": "Mythological Creature",
      "type": "Jellybean",
      "gender": "Male",
      "origin": {
        "name": "Fantasy World",
        "url": "https://rickandmortyapi.com/api/location/48"
      },
      "location": {
        "name": "Fantasy World",
        "url": "https://rickandmortyapi.com/api/location/48"
      },
      "image": "https://rickandmortyapi.com/api/character/avatar/193.jpeg",
      "episode": [
        "https://rickandmortyapi.com/api/episode/5"
      ],
      "url": "https://rickandmortyapi.com/api/character/193",
      "created": "2017-12-29T19:58:44.743Z"
    },
    {
      "id": 194,
      "name": "Kozbian",
      "status": "Alive",
      "species": "Alien",
      "type": "Tentacle alien",
      "gender": "unknown",
      "origin": {
        "name": "unknown",
        "url": ""
      },
      "location": {
        "name": "Planet Squanch",
        "url": "https://rickandmortyapi.com/api/location/35"
      },
      "image": "https://rickandmortyapi.com/api/character/avatar/194.jpeg",
      "episode": [
        "https://rickandmortyapi.com/api/episode/21"
      ],
      "url": "https://rickandmortyapi.com/api/character/194",
      "created": "2017-12-30T12:13:53.878Z"
    },
    {
      "id": 195,
      "name": "Kristen Stewart",
      "status": "Alive",
      "species": "Human",
      "type": "",
      "gender": "Female",
      "origin": {
        "name": "Earth (C-500A)",
        "url": "https://rickandmortyapi.com/api/location/23"
      },
      "location": {
        "name": "Earth (C-500A)",
        "url": "https://rickandmortyapi.com/api/location/23"
      },
      "image": "https://rickandmortyapi.com/api/character/avatar/195.jpeg",
      "episode": [
        "https://rickandmortyapi.com/api/episode/8"
      ],
      "url": "https://rickandmortyapi.com/api/character/195",
      "created": "2017-12-30T12:19:16.042Z"
    },
    {
      "id": 196,
      "name": "Krombopulos Michael",
      "status": "Dead",
      "species": "Alien",
      "type": "Gromflomite",
      "gender": "Male",
      "origin": {
        "name": "unknown",
        "url": ""
      },
      "location": {
        "name": "unknown",
        "url": ""
      },
      "image": "https://rickandmortyapi.com/api/character/avatar/196.jpeg",
      "episode": [
        "https://rickandmortyapi.com/api/episode/13"
      ],
      "url": "https://rickandmortyapi.com/api/character/196",
      "created": "2017-12-30T12:28:52.954Z"
    },
    {
      "id": 197,
      "name": "Kyle",
      "status": "Dead",
      "species": "Humanoid",
      "type": "Miniverse inhabitant",
      "gender": "Male",
      "origin": {
        "name": "Zeep Xanflorp's Miniverse",
        "url": "https://rickandmortyapi.com/api/location/49"
      },
      "location": {
        "name": "Kyle's Teenyverse",
        "url": "https://rickandmortyapi.com/api/location/50"
      },
      "image": "https://rickandmortyapi.com/api/character/avatar/197.jpeg",
      "episode": [
        "https://rickandmortyapi.com/api/episode/17"
      ],
      "url": "https://rickandmortyapi.com/api/character/197",
      "created": "2017-12-30T12:39:09.025Z"
    },
    {
      "id": 198,
      "name": "Lady Katana",
      "status": "Dead",
      "species": "Humanoid",
      "type": "Cyborg",
      "gender": "Female",
      "origin": {
        "name": "unknown",
        "url": ""
      },
      "location": {
        "name": "Dorian 5",
        "url": "https://rickandmortyapi.com/api/location/29"
      },
      "image": "https://rickandmortyapi.com/api/character/avatar/198.jpeg",
      "episode": [
        "https://rickandmortyapi.com/api/episode/25"
      ],
      "url": "https://rickandmortyapi.com/api/character/198",
      "created": "2017-12-30T12:43:37.571Z"
    },
    {
      "id": 199,
      "name": "Larva Alien",
      "status": "Alive",
      "species": "Alien",
      "type": "Larva alien",
      "gender": "unknown",
      "origin": {
        "name": "Larva Alien's Planet",
        "url": "https://rickandmortyapi.com/api/location/51"
      },
      "location": {
        "name": "Planet Squanch",
        "url": "https://rickandmortyapi.com/api/location/35"
      },
      "image": "https://rickandmortyapi.com/api/character/avatar/199.jpeg",
      "episode": [
        "https://rickandmortyapi.com/api/episode/16",
        "https://rickandmortyapi.com/api/episode/19",
        "https://rickandmortyapi.com/api/episode/21"
      ],
      "url": "https://rickandmortyapi.com/api/character/199",
      "created": "2017-12-30T12:48:44.677Z"
    },
    {
      "id": 200,
      "name": "Lawyer Morty",
      "status": "unknown",
      "species": "Human",
      "type": "",
      "gender": "Male",
      "origin": {
        "name": "unknown",
        "url": ""
      },
      "location": {
        "name": "Citadel of Ricks",
        "url": "https://rickandmortyapi.com/api/location/3"
      },
      "image": "https://rickandmortyapi.com/api/character/avatar/200.jpeg",
      "episode": [
        "https://rickandmortyapi.com/api/episode/22"
      ],
      "url": "https://rickandmortyapi.com/api/character/200",
      "created": "2017-12-30T12:49:52.971Z"
    }
  ]
}
